{
    "input_shape": [64, 64, 3],
    "layers": [
        {
            "type": "concat_conditioning"
        },
        {
            "type": "conv",
            "filters": 32,
            "strides": 2,
            "kernel_size": 3,
            "activation": null
        },
        {
            "type": "leakyrelu"
        },
        {
            "type": "pool",
            "strides": 2,
            "pool_size": 2
        },
        {
            "type": "conv",
            "filters": 128,
            "strides": 2,
            "kernel_size": 3,
            "activation": null
        },
        {
            "type": "leakyrelu"
        },

        {
            "type": "pool",
            "strides": 2,
            "pool_size": 2
        },
        {
            "type": "conv",
            "filters": 256,
            "strides": 2,
            "kernel_size": 3,
            "activation": null
        },
        {
            "type": "leakyrelu"
        },
        {
            "type": "pool",
            "strides": 2,
            "pool_size": 2
        },
        {
            "type": "flatten"
        },
        {
            "type": "dense",
            "use_conditioning": true,
            "output_size": 150,
            "activation": null
        },
        {
            "type": "leakyrelu"
        },
        {
            "type": "dense",
            "output_size": 1,
            "activation": "sigmoid"
        }
    ]
}
